<svg width="32" height="32" viewBox="0 0 32 32" fill="none" xmlns="http://www.w3.org/2000/svg">
<g filter="url(#filter0_i_363_14912)">
<path d="M1.33203 14.2965V26.7994C1.33203 27.2058 1.6602 27.5349 2.06536 27.5349H5.73203V12.8256H2.7987C1.98882 12.8256 1.33203 13.4843 1.33203 14.2965ZM24.1456 9.1501L16.8122 4.24684C16.5713 4.08588 16.2882 4 15.9987 4C15.7092 4 15.4261 4.08588 15.1852 4.24684L7.85182 9.1501C7.65096 9.2844 7.48625 9.46635 7.37232 9.6798C7.25839 9.89326 7.19875 10.1316 7.1987 10.3737V27.5349H13.0654V20.9157C13.0654 20.5094 13.3935 20.1802 13.7987 20.1802H18.1987C18.6039 20.1802 18.932 20.5094 18.932 20.9157V27.5349H24.7987V10.3742C24.7987 9.88235 24.5535 9.42268 24.1456 9.1501ZM15.9987 15.7674C13.9738 15.7674 12.332 14.1209 12.332 12.0901C12.332 10.0593 13.9738 8.41279 15.9987 8.41279C18.0236 8.41279 19.6654 10.0593 19.6654 12.0901C19.6654 14.1209 18.0236 15.7674 15.9987 15.7674ZM29.1987 12.8256H26.2654V27.5349H29.932C30.3372 27.5349 30.6654 27.2058 30.6654 26.7994V14.2965C30.6654 13.4843 30.0086 12.8256 29.1987 12.8256Z" fill="url(#paint0_linear_363_14912)" fill-opacity="0.4"/>
</g>
<defs>
<filter id="filter0_i_363_14912" x="1.33203" y="4" width="29.332" height="27.5349" filterUnits="userSpaceOnUse" color-interpolation-filters="sRGB">
<feFlood flood-opacity="0" result="BackgroundImageFix"/>
<feBlend mode="normal" in="SourceGraphic" in2="BackgroundImageFix" result="shape"/>
<feColorMatrix in="SourceAlpha" type="matrix" values="0 0 0 0 0 0 0 0 0 0 0 0 0 0 0 0 0 0 127 0" result="hardAlpha"/>
<feOffset dy="4"/>
<feGaussianBlur stdDeviation="2"/>
<feComposite in2="hardAlpha" operator="arithmetic" k2="-1" k3="1"/>
<feColorMatrix type="matrix" values="0 0 0 0 0 0 0 0 0 0.2 0 0 0 0 0.4 0 0 0 0.1 0"/>
<feBlend mode="normal" in2="shape" result="effect1_innerShadow_363_14912"/>
</filter>
<linearGradient id="paint0_linear_363_14912" x1="30.7387" y1="4" x2="7.77579" y2="32.692" gradientUnits="userSpaceOnUse">
<stop stop-color="#96AAB7"/>
<stop offset="1" stop-color="#728896"/>
</linearGradient>
</defs>
</svg>
